BANK OF AMERICA, NATIONAL ASSOCIATION Customer Complaint Analysis
…
Convert empty space to NA

df_ba$Consumer.complaint.narrative[which(df_ba$Consumer.complaint.narrative == "")] <- NA

6 Sentiment Analysis consumer complaint narrative

# a. High level overview
# Use word cloud and sentiment bing
get_sentiments("bing")

# A tibble: 6,786 × 2
   word        sentiment
   <chr>       <chr>    
 1 2-faces     negative 
 2 abnormal    negative 
 3 abolish     negative 
 4 abominable  negative 
 5 abominably  negative 
 6 abominate   negative 
 7 abomination negative 
 8 abort       negative 
 9 aborted     negative 
10 aborts      negative 
# ℹ 6,776 more rows
…
